[gd_scene load_steps=3 format=2]

[ext_resource path="res://samples/runtime-path-follow/RuntimePathFollow.gd" type="Script" id=1]
[ext_resource path="res://icon.png" type="Texture" id=2]

[node name="RuntimePathFollow" type="Node2D" index="0"]

script = ExtResource( 1 )

[node name="icon" type="Sprite" parent="." index="0"]

position = Vector2( 940, 398 )
scale = Vector2( 0.5, 0.5 )
texture = ExtResource( 2 )
_sections_unfolded = [ "Transform" ]


